<?xml version="1.0" encoding="utf-8"?>
<!-- Generator: Adobe Illustrator 20.1.0, SVG Export Plug-In . SVG Version: 6.00 Build 0)  -->
<svg version="1.1" id="Layer_1" xmlns="http://www.w3.org/2000/svg" xmlns:xlink="http://www.w3.org/1999/xlink" x="0px" y="0px"
	 viewBox="0 0 389.8 226.1" enable-background="new 0 0 389.8 226.1" xml:space="preserve">
<path fill="none" stroke-linejoin="round" stroke-miterlimit="10" d="M58.3,45.9h31.9 M0.2,45.9h58 M298.1,45.9
	h91.2 M4.9,80.7h90.3 M293.4,80.7h90.4 M292.8,4.1 M96.2,4.1 M295.2,21.6l11-17.5H80.9l15.3,17.5 M389.2,29.3h-91.2h-2.8v-1.9v-6.7
	L96.2,20.8v8.5h-4.8H0.2 M96.2,29.8l5.8,8.4h186.2l7-9.4 M93.1,18.1 M95.6,29.4l199.6-0.6 M96.2,59c0,0-4.8,76.2-2.2,107.5
	 M110.1,166.5c2.5-31.3-2.2-107.5-2.2-107.5 M133.8,59c0,0-4.8,72.3-2.2,102.3 M147.8,161.3c2.5-30-2.2-102.3-2.2-102.3 M168.9,59
	c0,0-4.8,71.3-2.2,101.3 M182.8,161.3c2.5-30-2.2-102.3-2.2-102.3 M206.2,59c0,0-4.8,72.3-2.2,102.3 M220.2,161.3
	c2.5-30-2.2-102.3-2.2-102.3 M243.2,58.9c0,0-4.8,74.2-2.2,104.8 M257.2,163.7c2.5-30.6-2.2-104.8-2.2-104.8 M280.6,59
	c0,0-4.8,77.9-2.2,109.8 M294.5,168.8c2.5-31.9-2.2-109.8-2.2-109.8 M2.2,168.7l91.4-4.2 M295.2,166.5l92.3,6 M0.2,52.6H92
	 M296.3,52.6H390 M20.8,74.3l0.1-7h-16v7 M8.7,67.3v6.9 M12.9,67.3v6.9 M17,67.3v6.9 M45.3,74.3l0.1-7h-16v7 M33.3,67.3v6.9
	 M37.4,67.3v6.9 M41.5,67.3v6.9 M71.4,74.3l0.1-7h-16v7 M59.3,67.3v6.9 M63.4,67.3v6.9 M67.6,67.3v6.9 M95.3,67.3H81.2v7 M85,67.3
	v6.9 M89.1,67.3v6.9 M93.3,67.3v6.9 M382.7,75.7v-7h-16l0.1,7 M378.9,68.7v6.9 M374.8,68.7v6.9 M370.6,68.7v6.9 M358.2,75.7v-7h-16
	l0.1,7 M354.4,68.7v6.9 M350.2,68.7v6.9 M346.1,68.7v6.9 M332.2,75.7v-7h-16l0.1,7 M328.3,68.7v6.9 M324.2,68.7v6.9 M320.1,68.7v6.9
	 M307.2,75.7v-7h-14.9 M303.4,68.7v6.9 M299.3,68.7v6.9 M295.1,68.7v6.9 M90.3,168.8h24.6 M84.1,172.7h31.4 M127.1,163.4h24.6
	 M121,167.4h16.3 M211.2,163.4h14.1 M226.1,167.4h5.4 M237.1,166.8h25.1 M238.5,170.7h29.8 M274.8,170.7h25.6 M269.6,174.6h36.9
	 M46.6,94.9c0,0-2.9,34.1,0,62.2 M54.9,157c2.9-28,0-62.2,0-62.2 M72.6,93.2c0,0-2.9,34.1,0,62.2 M80.9,155.3c2.9-28,0-62.2,0-62.2
	 M20.5,96c0,0-2.9,34.1,0,62.2 M28.8,158.1c2.9-28,0-62.2,0-62.2 M16.5,159.5h15.4 M13.1,162.2h22.2 M43.2,158.3H58 M39.8,160.9
	h21.7 M69.6,156.6h14.9 M66.2,159.2h21.7 M32.8,96l-2.7-3.6H19.3L16.5,96 M58.6,95.6L55.9,92H45.1l-2.8,3.6 M84.8,93.9l-2.7-3.6
	H71.3l-2.8,3.6 M332.7,97c0,0-2.9,34.1,0,62.2 M341,159.2c2.9-28,0-62.2,0-62.2 M360.4,98.1c0,0-2.9,34.1,0,62.2 M368.7,160.3
	c2.9-28,0-62.2,0-62.2 M306.6,97c0,0-2.9,34.1,0,62.2 M314.9,159.2c2.9-28,0-62.2,0-62.2 M303.8,159.2h14.1 M300.4,161.9h20.9
	 M330,160.4h14.4 M326.6,163h21.2 M357.8,161.7H372 M354.4,164.4h20.9 M318.7,97.7l-2.7-3.6h-10.8l-2.8,3.6 M344.7,97.7l-2.7-3.6
	h-10.8l-2.8,3.6 M372.4,98.8l-2.7-3.6h-10.8l-2.8,3.6 M114.9,38.3H88.6L94,59h15.4L114.9,38.3z M152.9,38.2h-24.6l3.7,20.7h15.4
	L152.9,38.2z M188.2,38.2h-24.6l3.7,20.7h15.4L188.2,38.2z M225.2,38.2h-24.6l3.7,20.7h15.4L225.2,38.2z M261.7,38.2h-24.6l3.7,20.7
	h15.4L261.7,38.2z M299.7,38.5l-24.6-0.2l3.7,21.2h15.4L299.7,38.5z M183.6,156.1L73.5,182.9l102.6,14.8L183.6,156.1z M176.1,197.7
	L288,183.9l-104.4-27.9 M85.9,179.9l-48.3,2.9l133.3,21.3l152.5-20l-50.6-4.2 M37.6,182.8v12.1l133.3,27.7l152.9-26.3l-0.3-12.3
	 M170.9,204.1l0,18.6"/>
</svg>
