{
  "siteName":"Legion of Honor",
  "typekitID":"jpa8buj",
  "header":{
    "navigationItems":[
      {
        "title":"Visit",
        "href":"#",
        "target":"navigation__nav-visit",
        "navigationItems":[
          {
            "title":"Visit the Legion of Honor",
            "href":"/"
          },
          {
            "title":"Hours + Admissions",
            "href":"/"
          },
          {
            "title":"About the Legion of Honor",
            "href":"/"
          },
          {
            "title":"Tours",
            "href":"/"
          },
          {
            "title":"Group Visits",
            "href":"/"
          },
          {
            "title":"Hotel + Visitor Packages",
            "href":"/"
          },
          {
            "title":"Accessibility",
            "href":"/"
          },
          {
            "title":"Museum Policy",
            "href":"/"
          },
          {
            "title":"Dine",
            "href":"/"
          },
          {
            "title":"Calendar",
            "href":"/"
          }
        ],
        "featuredTitle":"Visit the Legion of Honor",
        "featuredItems":[
          {
            "image": {
              "src":"img/fpo-4x3-1.jpg",
              "alt":"Image alt"
            },
            "title":"Tickets",
            "href":"/"
          },
          {
            "image": {
              "src":"img/fpo-4x3-2.jpg",
              "alt":"Image alt"
            },
            "title":"Hours",
            "href":"/"
          },
          {
            "image": {
              "src":"img/fpo-4x3-3.jpg",
              "alt":"Image alt"
            },
            "title":"History of the Legion of Honor",
            "href":"/"
          },{
            "image": {
              "src":"img/fpo-4x3-4.jpg",
              "alt":"Image alt"
            },
            "title":"Architecture",
            "href":"/"
          }
        ]
      },
      {
        "title":"Exhibitions",
        "href":"#",
        "target":"navigation__nav-exhibitions",
        "navigationItems":[
          {
            "title":"Current Exhibition",
            "href":"/"
          },
          {
            "title":"Upcoming Exhibition",
            "href":"/"
          },
          {
            "title":"Exhibition Archive",
            "href":"/"
          }
        ],
        "featuredTitle":"Exhibition Highlights",
        "featuredItems":[
          {
            "image": {
              "src":"img/fpo-4x3-2.jpg",
              "alt":"Image alt"
            },
            "title":"Kay Sekimachi",
            "href":"/",
            "date":"Through Nov 6, 2016"
          },
          {
            "image": {
              "src":"img/fpo-4x3-3.jpg",
              "alt":"Image alt"
            },
            "title":"The Sumatran Ship Cloth",
            "href":"/",
            "date":"Through Nov 6, 2016"
          },
          {
            "image": {
              "src":"img/fpo-4x3-4.jpg",
              "alt":"Image alt"
            },
            "title":"Paulson Bott Press: Celebrating Twenty Years",
            "href":"/",
            "date":"Through Nov 6, 2016"
          },
          {
            "image": {
              "src":"img/fpo-4x3-5.jpg",
              "alt":"Image alt"
            },
            "title":"On the Grid: Textiles and Minimalism",
            "href":"/",
            "date":"Through Nov 6, 2016"
          }
        ]
      },
      {
        "title":"Collections",
        "href":"#",
        "target":"navigation__nav-collections",
        "navigationItems":[
          {
            "title":"American Paintings",
            "href":"/"
          },
          {
            "title":"American Decorative Art",
            "href":"/"
          },
          {
            "title":"African Art",
            "href":"/"
          },
          {
            "title":"Art of the Americas",
            "href":"/"
          },
          {
            "title":"Oceanic Art",
            "href":"/"
          },
          {
            "title":"Textile Arts",
            "href":"/"
          },
          {
            "title":"Works on Paper",
            "href":"/"
          },
          {
            "title":"Photography",
            "href":"/"
          },
          {
            "title":"Conservation",
            "href":"/"
          },
          {
            "title":"Resources",
            "href":"/"
          },
          {
            "title":"Explore the Art",
            "href":"/"
          }
        ],
        "featuredTitle":"Collections Highlights",
        "featuredItems":[
          {
            "image": {
              "src":"img/fpo-4x3-3.jpg",
              "alt":"Image alt"
            },
            "title":"American Painting",
            "href":"/"
          },
          {
            "image": {
              "src":"img/fpo-4x3-4.jpg",
              "alt":"Image alt"
            },
            "title":"American Decorative Art",
            "href":"/"
          },
          {
            "image": {
              "src":"img/fpo-4x3-5.jpg",
              "alt":"Image alt"
            },
            "title":"African Art",
            "href":"/"
          },
          {
            "image": {
              "src":"img/fpo-4x3-6.jpg",
              "alt":"Image alt"
            },
            "title":"Conservation",
            "href":"/"
          }
        ]
      },
      {
        "title":"Learn",
        "href":"#",
        "target":"navigation__nav-learn",
        "navigationItems":[
          {
            "title":"Programs",
            "href":"/",
            "navigationItems":[
              {
                "title":"Friday Nights at the Legion of Honor",
                "href":"/"
              },
              {
                "title":"Artist Fellows",
                "href":"#",
                "navigationItems":[
                  {
                    "title":"Item 1",
                    "href":"/"
                  },
                  {
                    "title":"Item 2",
                    "href":"/"
                  }
                ]
              },
              {
                "title":"Artist Studios",
                "href":"#",
                "navigationItems":[
                  {
                    "title":"Item 1",
                    "href":"/"
                  },
                  {
                    "title":"Item 2",
                    "href":"/"
                  }
                ]
              },
              {
                "title":"dYinterpretations",
                "href":"/"
              }
            ]
          },
          {
            "title":"Education",
            "href":"/",
            "navigationItems":[
              {
                "title":"Families with Children",
                "href":"#",
                "navigationItems":[
                  {
                    "title":"Item 1",
                    "href":"/"
                  },
                  {
                    "title":"Item 2",
                    "href":"/"
                  }
                ]
              },
              {
                "title":"K-12 Students",
                "href":"#",
                "navigationItems":[
                  {
                    "title":"Item 1",
                    "href":"/"
                  },
                  {
                    "title":"Item 2",
                    "href":"/"
                  }
                ]
              },
              {
                "title":"College Programs",
                "href":"/"
              },
              {
                "title":"Resources for Educators",
                "href":"#",
                "navigationItems":[
                  {
                    "title":"Item 1",
                    "href":"/"
                  },
                  {
                    "title":"Item 2",
                    "href":"/"
                  }
                ]
              },
              {
                "title":"Docents",
                "href":"/"
              }
            ]
          }
        ],
        "featuredTitle":"Learn",
        "featuredItems":[
          {
            "image": {
              "src":"img/fpo-4x3-4.jpg",
              "alt":"Image alt"
            },
            "title":"Artist Fellows",
            "href":"/"
          },
          {
            "image": {
              "src":"img/fpo-4x3-5.jpg",
              "alt":"Image alt"
            },
            "title":"Friday Nights at the Legion of Honor",
            "href":"/"
          },
          {
            "image": {
              "src":"img/fpo-4x3-6.jpg",
              "alt":"Image alt"
            },
            "title":"Free Saturday Classes",
            "href":"/"
          },
          {
            "image": {
              "src":"img/fpo-4x3-7.jpg",
              "alt":"Image alt"
            },
            "title":"Daily Tours",
            "href":"/"
          }
        ]
      },
      {
        "title":"Join + Give",
        "href":"#",
        "target":"navigation__nav-join-give",
        "navigationItems":[
          {
            "title":"Join",
            "href":"/",
            "navigationItems":[
              {
                "title":"Membership Levels + Benefits",
                "href":"/"
              },
              {
                "title":"Member Events",
                "href":"/"
              },
              {
                "title":"Frequently Asked Questions",
                "href":"/"
              },
              {
                "title":"Join / Renew",
                "href":"/"
              },
              {
                "title":"Member Tickets",
                "href":"/"
              }
            ]
          },
          {
            "title":"Give",
            "href":"/",
            "navigationItems":[
              {
                "title":"Make a Gift",
                "href":"/"
              },
              {
                "title":"Annual Giving",
                "href":"/"
              },
              {
                "title":"Individual Giving",
                "href":"/"
              },
              {
                "title":"Corporate, Foundation + Government Giving",
                "href":"/"
              },
              {
                "title":"Planned Giving",
                "href":"/"
              },
              {
                "title":"Volunteering",
                "href":"/"
              }
            ]
          }
        ],
        "featuredTitle":"Join + Give",
        "featuredItems":[
          {
            "image": {
              "src":"img/fpo-4x3-5.jpg",
              "alt":"Image alt"
            },
            "title":"Become a Member",
            "href":"/"
          },
          {
            "image": {
              "src":"img/fpo-4x3-6.jpg",
              "alt":"Image alt"
            },
            "title":"Ways to Give",
            "href":"/"
          }
        ]
      },
      {
        "title":"Shop",
        "href":"/"
      },
      {
        "title":"Buy Tickets",
        "href":"/",
        "class": "buy"
      }
    ]
  },
  "footer": {
    "address": {
      "line1": "Lincoln Park",
      "line2": "100 34th Avenue",
      "postalCode": "94121"
    }
  },
  "module" : {
    "permanentCollections": {
      "classes" : {
        "_this" : "collection--text-right collection--permanent js-permanent-collections",
        "sections" : "",
          "hero" : "[ u-span7@m u-span6@l u-offset0 ]",
          "heroLink" : "[ u-bgc-grey-lt u-opacity-70 ]",
          "text" : "[ u-span7@m u-offset5@m u-span6@l u-offset6@l u-span7@xl u-offset5@xl ]",
            "tag" : "u-highlight",
            "title": "",
            "subTitle": "",
            "body": ""
        },
      "hero" : {
        "img" : "map-overlay-loh.jpg",
        "url" :"/"
      },
      "tag": "Permanent Collections",
      "title": "The de Young’s collection exceeds 27,000 works of art,  including <a href=\"http://www.codeandtheory.com/\" data-img=\"img/fpo-4x3-1.jpg\" title=\"painting\" alt=\"painting\">painting</a>, <a href=\"/\" data-img=\"img/fpo-4x3-2.jpg\" title=\"sculpture\" alt=\"sculpture\">sculpture</a>,  <a href=\"/\" data-img=\"img/fpo-4x3-3.jpg\" title=\"decorative arts\" alt=\"decorative arts\">decorative arts</a>, and <a href=\"/\" data-img=\"img/fpo-4x3-4.jpg\" title=\"works on paper\" alt=\"works on paper\">works on paper</a>; the Art of <a href=\"/\" data-img=\"img/fpo-4x3-5.jpg\" title=\"Africa\" alt=\"Africa\">Africa</a>, <a href=\"/\" data-img=\"img/fpo-4x3-6.jpg\" title=\"Oceania\" alt=\"Oceania\">Oceania</a>, and the <a href=\"/\" data-img=\"img/fpo-4x3-7.jpg\" title=\"Americas\" alt=\"scuAmericaslpture\">Americas</a>; and <a href=\"/\" data-img=\"img/fpo-4x3-8.jpg\" title=\"costumes and textiles\" alt=\"costumes and textiles\">costumes and textiles</a> representing a wide variety of Eastern and Western traditions."
    },
    "map": {
      "classes" : {
          "_this" : "collection--text-right collection--map js-map",
          "sections" : "[ u-df@m u-flexww@m u-jcsb@m ]",
            "hero" : "u-span7@m u-span8@l",
            "text" : "u-span5@m u-span4@l",
              "tag" : "u-highlight",
              "title": "u-grey-dark",
              "subTitle": "",
              "body": ""
      },
      "hero" : {
          "img" : "map.jpg"
        },
      "tag": "Our Location",
      "title": "In San Francisco’s Golden Gate Park Since 1895",
      "body": "The de Young Museum has been an integral part of the cultural fabric of the city and a cherished destination for millions of presidents and visitors to the region for over 100 years.",

      "module" : {
        "mapHero" : "1"
      },
      "map" : {
        "classes" : {
          "pin" : { "loh" : "map__pin--main" }
        },
        "dy" : "https://www.google.com.ph/maps/place/50+Hagiwara+Tea+Garden+Dr,+San+Francisco,+CA+94118,+USA/@37.7714658,-122.4708538,17z/data=!3m1!4b1!4m5!3m4!1s0x80858741eef51d3b:0x9454bd4e537f9935!8m2!3d37.7714658!4d-122.4686651?hl=en",
        "loh": "https://www.google.com.ph/maps/place/Legion+of+Honor/@37.7714619,-122.4861747,14z/data=!3m1!5s0x808587ad2882e5ed:0xff95595efc2bb196!4m8!1m2!2m1!1sLincoln+Park+100+34th+Avenue!3m4!1s0x0:0xb9ffd88c77154d2c!8m2!3d37.7844651!4d-122.5008416?hl=en"
      }
    },
    "breaker": {
      "classes" : {
        "_this" : "",
        "sections" : "",
          "hero" : "",
          "heroOverlay" : "[ u-bg-block u-bgc-hl3 u-opacity-90 ]",
          "text" : "",
            "textInner" : "u-span11@l u-offset1@l",
            "title": "",
            "body": ""
      },
      "hero" : {
        "img" : "fpo-4x3-1.jpg"
      },
      "title": "Visit Us",
      "body": "<a href=\"/\">Tickets to the de Young</a> include same-day General Admission to the <a href=\"/\">Legion of Honor Museum</a>."
    },
    "cinematicGallery": {
      "title": "Explore the de Young"
    }
  }
}
