<?xml version="1.0" encoding="utf-8"?>
<!-- Generator: Adobe Illustrator 20.1.0, SVG Export Plug-In . SVG Version: 6.00 Build 0)  -->
<svg version="1.1" id="Layer_1" xmlns="http://www.w3.org/2000/svg" xmlns:xlink="http://www.w3.org/1999/xlink" x="0px" y="0px"
	 viewBox="0 0 331.6 192.3" enable-background="new 0 0 331.6 192.3" xml:space="preserve">
<path fill="none" stroke-miterlimit="10" d="M231.9,164.1v-6.8l-102.4-23.5L3.2,146.5v-46l126-19.5l77.8,31.6
	l-22.4-64.4l7.5-2l0.2-3.7l-7.7-2V16.1l45.8-12.9L327,32.1l1.3,22.1l-6.6,1.5l0.2,3.9l6.4,1.3c0,0-26.1,86.6-27.4,86.8l-29.6-10.3
	L231.9,37.2v-7.7h-1.3V3.2 M321.9,59.7l-90.1-22.6l-39.7,9 M262.5,164.3l-1.1-28.5L207,112.6 M184.7,40.4l45.8-11 M231.9,29.5
	l96.4,24.8 M271.3,137.5h-9.8 M301.1,147.8V164 M271.3,137.5V164 M129.5,191V81 M315.9,101.8L249.1,81l-50.2,7.9 M314.9,103.5
	l-64.8-19.9l-50.4,7.8"/>
</svg>
