{
  "data":{
    "pageTitle":"Calendar Landing",

    "editorial" : {
      "title" : "Must-See Exhibitions",
      "items" : [
        {
          "classes" : {
            "cont" : "u-mar-0@m",
            "heroLink": "[ u-bgc-bk u-opacity-0 u-opacity-hover-50 ]"
          },
          "hero" : {
            "img" : "fpo-4x3-1.jpg"
          },
          "url": "/",
          "title" : "Danny Lyon: Message to the Future",
          "category" : "Special Exhibitions",
          "date" : "November 5 &mdash; April 30, 2017"
        },
        {
          "classes" : {
            "cont" : "u-mar-0@m",
            "heroLink": "[ u-bgc-bk u-opacity-0 u-opacity-hover-50 ]"
          },
          "hero" : {
            "img" : "fpo-4x3-2.jpg"
          },
          "url": "/",
          "title" : "Frank Stella&rsquo;s Prints",
          "category" : "Special Exhibitions",
          "date" : "November 5 &mdash; April 30, 2017"
        },
        {
          "classes" : {
            "cont" : "u-mar-0@m",
            "heroLink": "[ u-bgc-bk u-opacity-0 u-opacity-hover-50 ]"
          },
          "hero" : {
            "img" : "fpo-4x3-3.jpg"
          },
          "url": "/",
          "title" : "The Summer of Love Experience: Art, Fashion, and Rock &amp; Roll",
          "category" : "Special Exhibitions",
          "date": "April 8 &mdash; August 20, 2017"
        }
      ]
    },

    "grid": {
      "blocks": [
        {
          "url": "#",
          "image": "img/fpo-4x3-4.jpg",
          "category": "Special Events",
          "title": "&ldquo;Bouquets to Art&rdquo;: Elegant Catered Lunch",
          "dateVenue": "12:00pm – 1:45pm, Piazzoni Murals Room"
        },
        {
          "url": "#",
          "image": "img/fpo-4x3-5.jpg",
          "category": "Special Events",
          "title": "&ldquo;Bouquets to Art&rdquo;: Lecture &amp; Demonstration by Francois Weeks",
          "dateVenue": "2:00pm – 3:30pm, Wilsey Court"
        },
        {
          "url": "#",
          "image": "img/fpo-4x3-6.jpg",
          "category": "Docent Tour",
          "title": "In Pursuit of Excellence: American Decorative Arts",
          "dateVenue": "12:00pm – 1:30pm, Wilsey Court"
        },
        {
          "url": "#",
          "category": "Docent Tour",
          "title": "&ldquo;Three Masterpieces in 30 Minutes&rdquo;",
          "dateVenue": "1:00pm – 1:30pm, Wilsey Court"
        },
        {
          "url": "#",
          "category": "Docent Tour",
          "title": "Art and Architecture: Hightlights of the de Young",
          "dateVenue": "2:00pm – 3:00pm, Wilsey Court"
        },
        {
          "url": "#",
          "category": "Docent Tour",
          "title": "Beyond Western Africa, Oceania, and the Americas",
          "dateVenue": "12:00pm – 12:30pm, The Rotunda"
        }
      ]
    },

    "noResultLink": "#special-events"
  }
}
