{
  "home":{
    "pageTitle":"Home",

    "blockquote": {
      "type": "global",
      "title": "In the Artist's World",
      "body": "<a href=\"/\">It's like some kind of stiff figure in clumsy clothes. It came about through my idea that if somebody who worked for the telephone company were asked to design a poster for a picnic, that's the kind of design they would come up with.</a>",
      "byline": "— Ed Ruscha speaking to Interview Magazine about Boy Scout Utility Modern, the typeface he created in the 1980s."
    },

    "collections":{
      "features":[
        {
          "classes" : {
            "_this" : "collection--text-right collection--feature",
            "sections" : "[ u-df@m u-flexww@m u-jcsb@m ]",
              "hero" : "u-span7",
              "heroLink": "[ u-bgc-bk u-opacity-0 u-opacity-hover-50 ]",
              "text" : "u-span5",
                "tag" : "u-highlight",
                "title": "u-grey-dark",
                "subTitle": "",
                "body": ""
          },
          "hero" : {
            "img" : "fpo-4x3-1.jpg",
            "url" :"/"
          },
          "tag" : "Exhibitions",
          "title": "<a href=\"/\" class=\"link-dk-grey\">Ed Ruscha and the Great American West</a>",
          "subTitle": "Through October 9, 2016",
          "body": "Ed Ruscha and the Great American West includes 99 works that reveal the artist’s engagement with the American West and its starring role in our national mythology.",

          "callout" : { "label" : "Ending soon" },
          "cta" : { "label" : "View Exhibitions", "url" : "/" },
          "line" : { "classes" :"line--right@s" }
        },
        {
          "classes" : {
            "_this" : "collection--text-left collection--feature",
            "sections" : "[ u-df@m u-flexww@m u-jcsb@m ]",
              "hero" : "u-span7 u-order-1",
              "heroLink": "[ u-bgc-bk u-opacity-0 u-opacity-hover-50 ]",
              "text" : "u-span5",
                "tag" : "u-highlight",
                "title": "u-grey-dark",
                "subTitle": "",
                "body": ""
          },
          "hero" : {
            "img" : "fpo-4x3-2.jpg",
            "url" :"/"
          },
          "tag" : "Collections",
          "title": "<a href=\"/\" class=\"link-dk-grey\">Hiram Powers Masterpiece Recently Acquired at the de Young</a>",
          "body": "Greek Slave was one of the first full-length fine-art nude sculptures exhibited publicly in the United States, and it generated enormous controversy...",

          "cta" : { "label" : "View collections", "url" : "/" },
          "line" : { "classes" :"line--right" }
        },
        {
          "classes" : {
            "_this" : "collection--text-right collection--feature",
            "sections" : "[ u-df@m u-flexww@m u-jcsb@m ]",
              "hero" : "u-span7",
              "heroLink": "[ u-bgc-bk u-opacity-0 u-opacity-hover-50 ]",
              "text" : "u-span5",
                "tag" : "u-highlight",
                "title": "u-grey-dark",
                "subTitle": "",
                "body": ""
          },
          "hero" : {
            "img" : "fpo-4x3-3.jpg",
            "url" :"/"
          },
          "text" : "",
          "tag" : "Events",
          "title": "<a href=\"/\" class=\"link-dk-grey\">Exploring Connections: Migration, Poverty, Agriculture, and the Environment</a>",
          "subTitle": "Through October 9, 2016",
          "body": "Matt Black's work explores the connections between migration, poverty, agriculture, and the environment in his native California and southern Mexico.",

          "cta" : { "label" : "View Events", "url" : "/" },
          "line" : { "classes" :"line--right@s" }
        }
      ]
    },
    "editorial" : {
      "title" : "In the Artist's Words",

      "items" : [
        {
          "classes" : {
            "cont" : "u-mar-0@m",
            "heroLink": "[ u-bgc-bk u-opacity-0 u-opacity-hover-50 ]"
          },
          "hero" : {
            "img" : "fpo-4x3-1.jpg"
          },
          "url": "/",
          "title" : "Video: Playing with Food (for Art and Science)",
          "body" : "Take a trip to our conservation lab where the paper conservation team set up a screen-printing station to investigate prints that Ed Ruscha made with foods including Heinz Baked..."
        },
        {
          "classes" : {
            "cont" : "u-mar-0@m",
            "heroLink": "[ u-bgc-bk u-opacity-0 u-opacity-hover-50 ]"
          },
          "hero" : {
            "img" : "fpo-4x3-2.jpg"
          },
          "url": "/",
          "title" : "How to Defy Gravity",
          "body" : "Produced in close collaboration with San Francisco native Kay Sekimachi (b. 1926), a pioneer in the post-World War II fiber art movement, this exhibition offers a glimpse..."
        },
        {
          "classes" : {
            "cont" : "u-mar-0@m",
            "heroLink": "[ u-bgc-bk u-opacity-0 u-opacity-hover-50 ]"
          },
          "hero" : {
            "img" : "fpo-4x3-3.jpg"
          },
          "url": "/",
          "title" : "Meet Max Hollein",
          "body" : "On June 1, Max Hollein became the new director of the Fine Arts Museums. Born in Vienna, Max comes to us most recently from Frankfurt, where he directed the Schirn Kunsthalle..."
        }
      ]
    },
    "media-gallery": [
    {
      "tag": "Education Programs",
      "title": "Museum Ambassadors’ Classroom Visit and Gallery Tours",
      "description": "The Museum Ambassador Program is a two-part program. Teen Museum Ambassadors will visit classrooms or community centers to introduce a special exhibition...",
      "image":"img/fpo-gallery-1.jpg"
    },
    {
      "tag": "Education Programs",
      "title": "Museum Ambassadors’ Classroom Visit and Gallery Tours",
      "description": "The Museum Ambassador Program is a two-part program. Teen Museum Ambassadors will visit classrooms or community centers to introduce a special exhibition...",
      "image":"img/fpo-gallery-2.jpg"
    },
    {
      "tag": "Education Programs",
      "title": "Museum Ambassadors’ Classroom Visit and Gallery Tours",
      "description": "The Museum Ambassador Program is a two-part program. Teen Museum Ambassadors will visit classrooms or community centers to introduce a special exhibition...",
      "image":"img/fpo-gallery-3.jpg"
    },
    {
      "tag": "Education Programs",
      "title": "Museum Ambassadors’ Classroom Visit and Gallery Tours",
      "description": "The Museum Ambassador Program is a two-part program. Teen Museum Ambassadors will visit classrooms or community centers to introduce a special exhibition...",
      "image":"img/fpo-gallery-4.jpg"
    }
  ]
  }
}
