{
  "data":{
    "pageTitle":"Join",
    "joinHeroActive":true,
    "gen-info":{
      "details": {
        "title": "Discounted Membership",
        "content": "<p>Discount offered for students, teachers, seniors, out of state residents; must provide valid proof of status/valid ID. Call for more information <a href='tel:888.123.4567'>888.123.4567</a></p>"
      }
    },
    "aux": {
      "title": "Member Services",
      "body": "<ul><li><strong class=\"join-give-intro__aux__item-title\">Email</strong><a href=\"mailto:membership@famsf.org\">membership@famsf.org</a></li><li><strong class=\"join-give-intro__aux__item-title\">Phone: M-F, 9am - 5pm</strong><a href=\"tel:+14157503636\">415.750.3636</a></li><li><strong class=\"join-give-intro__aux__item-title\">Phone: 24 hrs/day, 7 days/week</strong><a href=\"tel:+18007779996\">800.777.9996</a></li></ul>"
    },

    "grid": {
      "blocks": [
        {
          "title": "Art Point",
          "images": [
            {
              "item": "img/fpo-4x3-1.jpg"
            },
            {
              "item": "img/fpo-4x3-2.jpg"
            },
            {
              "item": "img/fpo-4x3-3.jpg"
            }

          ],
          "url": "/",
          "excerpt": "The de Young's American Art Department is home to one of the finest survey collections of American paintings in the United States. Strengthened by the acquisition of the Rockefeller Collection of American Art, the de Young's holdings include more than 1000 paintings ranging from 1670 to the prese..."
        },
        {
          "title": "de Youngster",
          "images": [
            {
              "item": "img/fpo-4x3-4.jpg"
            },
            {
              "item": "img/fpo-4x3-5.jpg"
            },
            {
              "item": "img/fpo-4x3-6.jpg"
            }
          ],
          "url": "/",
          "excerpt": "The de Young's American Art Department is home to one of the finest survey collections of American paintings in the United States. Strengthened by the acquisition of the Rockefeller Collection of American Art, the de Young's holdings include more than 1000 paintings ranging from 1670 to the prese..."
        }
      ]
    },
    "breaker": {
      "classes" : {
        "_this" : "",
        "sections" : "",
        "hero" : "",
        "heroOverlay" : "[ u-bg-block u-bgc-hl3 u-opacity-90 ]",
        "text" : "",
        "textInner" : "u-span11@l u-offset1@l",
        "title": "",
        "body": ""
      },
      "hero" : {
        "img" : "fpo-4x3-1.jpg"
      },
      "title": "Support Groups",
      "body": "Our member-based <a href=\"/\">special interest groups</a> enjoy exclusive events, lectures, and trips."
    },
    "blockquote": {
      "type": "global",
      "title": "What Members Say",
      "body": "I love being a member of the FAMSF family, it allows me and my own family to explore two of San Francisco’s finest museums.",
      "byline": "— Ed Ruscha speaking to Interview Magazine"
    },
    "circulation": {
      "has2Item": true,
      "items": [
        {
          "title": "Member Tickets",
          "url": "/"
        },
        {
          "title": "FAQ",
          "url": "/"
        }
      ]
    }
  }
}
