{
  "data":{
    "pageTitle":"Special Exhibitions",
    "exhibition-hero": {
      "image": "img/fpo-4x3-1.jpg",
      "type": "special",
      "mediaGallery": true,
      "mediaData": {
        "related": false,
        "type": "video",
        "src": "https://www.youtube.com/watch?v=-Yxt02FaHmA",
        "title": "<strong> cha, &quot;Stabdard Station&quot;, 1966.</strong> Color screenprint, 25 5/8 x 40 in. Published by Audrey Sabol, Villanova, PA. Fine Arts Museums of San Francsco, Museum purchase, Mrs. Paul L. Wattis Fund, 2000.131.51 &copy; Ed Ruscha</strong>"
      }
    },
    "cinematic": [
      {
        "image": "img/fpo-gallery-1.jpg",
        "caption": "Main entrance at the de Young Museum, 2016",
        "mediaGallery": true,
        "mediaData": {
          "related": true,
          "type": "video",
          "src": "https://www.youtube.com/watch?v=-Yxt02FaHmA",
          "title": "<strong>Ed Ruscha, &quot;Stabdard Station&quot;, 1966.</strong> Color screenprint, 25 5/8 x 40 in. Published by Audrey Sabol, Villanova, PA. Fine Arts Museums of San Francsco, Museum purchase, Mrs. Paul L. Wattis Fund, 2000.131.51 &copy; Ed Ruscha</strong>"
        }
      },
      {
        "image": "img/fpo-gallery-2.jpg",
        "caption": "Lorem ipsum dolor sit amet, consectetur adipiscing elit. Aenean iaculis faucibus pharetra.",
        "mediaGallery": true,
        "mediaData": {
          "related": true,
          "type": "image",
          "src": "img/fpo-gallery-2.jpg",
          "title": "<strong>Ed Ruscha, &quot;Stabdard Station&quot;, 1966.</strong> Color screenprint, 25 5/8 x 40 in. Published by Audrey Sabol, Villanova, PA. Fine Arts Museums of San Francsco, Museum purchase, Mrs. Paul L. Wattis Fund, 2000.131.51 &copy; Ed Ruscha</strong>"
        }
      },
      {
        "image": "img/fpo-gallery-3.jpg",
        "caption": "Suspendisse potenti. Mauris ut viverra elit. Aliquam posuere rutrum interdum. In imperdiet porttitor felis in interdum.",
        "mediaGallery": true,
        "mediaData": {
          "related": true,
          "type": "image",
          "src": "img/fpo-gallery-3.jpg",
          "title": "<strong>Ed Ruscha, &quot;Stabdard Station&quot;, 1966.</strong> Color screenprint, 25 5/8 x 40 in. Published by Audrey Sabol, Villanova, PA. Fine Arts Museums of San Francsco, Museum purchase, Mrs. Paul L. Wattis Fund, 2000.131.51 &copy; Ed Ruscha</strong>"
        }
      },
      {
        "image": "img/fpo-gallery-3.jpg",
        "caption": "Sed venenatis tempor pellentesque",
        "mediaGallery": true,
        "mediaData": {
          "related": true,
          "type": "video",
          "src": "https://www.youtube.com/watch?v=-Yxt02FaHmA",
          "title": "<strong>Ed Ruscha, &quot;Stabdard Station&quot;, 1966.</strong> Color screenprint, 25 5/8 x 40 in. Published by Audrey Sabol, Villanova, PA. Fine Arts Museums of San Francsco, Museum purchase, Mrs. Paul L. Wattis Fund, 2000.131.51 &copy; Ed Ruscha</strong>"
        }
      },
      {
        "image": "img/fpo-gallery-4.jpg",
        "caption": "Duis id urna ac tellus interdum tincidunt. Donec nec dui lacinia",
        "mediaGallery": true,
        "mediaData": {
          "related": true,
          "type": "image",
          "src": "img/fpo-gallery-4.jpg",
          "title": "<strong>Ed Ruscha, &quot;Stabdard Station&quot;, 1966.</strong> Color screenprint, 25 5/8 x 40 in. Published by Audrey Sabol, Villanova, PA. Fine Arts Museums of San Francsco, Museum purchase, Mrs. Paul L. Wattis Fund, 2000.131.51 &copy; Ed Ruscha</strong>"
        }
      }
    ],
    "blockquote": {
      "type": "global",
      "title": "Did you know?",
      "body": "Ed Ruscha still works on his art daily at the age of 78.",
      "byline": "— Ed Ruscha speaking to Interview Magazine"
    },
    "editorial" : {
      "title" : "The Books",

      "items" : [
        {
          "classes" : {
            "cont" : "u-mar-0@m",
            "heroLink": "[ u-bgc-bk u-opacity-0 u-opacity-hover-50 ]"
          },
          "hero" : {
          },
          "url": "/",
          "title" : "Kay Sekimachi: Student, Teacher, Artist"
        },
        {
          "classes" : {
            "cont" : "u-mar-0@m",
            "heroLink": "[ u-bgc-bk u-opacity-0 u-opacity-hover-50 ]"
          },
          "hero" : {
            "img" : "fpo-4x3-2.jpg"
          },
          "url": "/",
          "title" : "The Sumatran Ship Cloth"
        },
        {
          "classes" : {
            "cont" : "u-mar-0@m",
            "heroLink": "[ u-bgc-bk u-opacity-0 u-opacity-hover-50 ]"
          },
          "hero" : {
          },
          "url": "/",
          "title" : "Three Gems Alterations"
        }
      ]
    },
    "collection":{
      "bio": {
        "classes" : {
          "_this" : "collection--text-right collection--bio",
          "sections" : "",
            "hero" : "u-span6",
            "heroLink": "[ u-bgc-bk u-opacity-0 u-opacity-hover-50 ]",
            "text" : "u-span6 u-fr@m",
              "tag" : "",
              "title": "u-grey-dark u-span6 u-fr@m line line--clear@s",
              "caption": "u-span6 u-fl@m u-cl@m line line--right line--clear@m",
              "subTitle": "",
              "body": "line--right"
        },
        "hero" : {
          "img" : "fpo-4x3-5.jpg",
          "mediaGallery": true,
          "mediaData": {
            "related": true,
            "type": "image",
            "src": "img/fpo-4x3-5.jpg",
            "title": "<strong>Ed Ruscha, &quot;Stabdard Station&quot;, 1966.</strong> Color screenprint, 25 5/8 x 40 in. Published by Audrey Sabol, Villanova, PA. Fine Arts Museums of San Francsco, Museum purchase, Mrs. Paul L. Wattis Fund, 2000.131.51 &copy; Ed Ruscha</strong>"
          }
        },
        "caption" : "Ed Ruscha exhibition.",
        "title": "About the Artist",
        "body": "<p>Ed Ruscha was born into a Roman Catholic family in Omaha, Nebraska, with an older sister, Shelby, and a younger brother, Paul. Edward Ruscha, Sr. was an auditor for Hartford Insurance Company. Ruscha’s mother was supportive of her son’s early signs of artistic skill and interests. Young Ruscha was attracted to cartooning and would sustain this interest throughout his adolescent years...</p><p>While in school in 1957, Ruscha chanced upon then unknown Jasper Johns’ Target with Four Faces in the magazine Print and was greatly moved. Ruscha has credited these artists’ work as sources of inspiration for his change of interest from graphic arts to painting. He was also impacted by John McLaughlin's paintings, the work of H.C. Westermann, Arthur Dove’s 1925 painting Goin’ Fishin’, Alvin Lustig's cover illustrations for New Directions Press, and much of Marcel Duchamp’s work. In a 1961 tour of Europe, Ruscha came upon more works by Johns and Robert Rauschenberg, R. A. Bertelli’s Head of Mussolini, and Ophelia by Sir John Everett Millais. Some critics are quick to see the influence of Edward Hopper's Gas (1940) in Ruscha's 1963 oil painting, Standard Station, Amarillo, Texas.[4] In any case, \"Art has to be something that makes you scratch your head,\" Ruscha said.</p><p>Although Ruscha denies this in interviews, the vernacular of Los Angeles and Southern California landscapes contributes to the themes and styles central to much of Ruscha’s paintings, drawings, and books. Examples of this include the publication Every Building on the Sunset Strip (1966), a book of continuous photographs of a two and one half mile stretch of the 24 mile boulevard.[5] In 1973, following the model of Every Building on the Sunset Strip, he photographed the entire length of Hollywood Boulevard with a motorized camera.[6] Also, paintings like Standard Station (1966), Large Trademark (1962), and Hollywood (1982) exemplify Ruscha’s kinship with the Southern California visual language. Two of these paintings, Standard and Large Trademark were emulated out of car parts in 2008 by Brazilian photographer Vik Muniz as a commentary on Los Angeles and its car culture.</p><p>His work is also strongly influenced by the Hollywood film industry: the mountain in his Mountain Series is a play on the Paramount Pictures logo; Large Trademark with Eight Spotlights (1962) depicts the 20th Century Fox logo, while the dimensions of this work are reminiscent of a movie screen; in his painting The End (1991) these two words, which comprised the final shot in all  black-and-white films, are surrounded by scratches and streaks reminiscent of damaged celluloid. Also, the proportions of the Hollywood print seems to mimic the Cinemascope screen (however, to make the word \"Hollywood\", Ruscha transposed the letters of the sign from their actual location on the slope of the Santa Monica Mountains to the crest of the ridge).</p>",

        "cta" : { "label" : "Show More +", "url" : "/", "classes" : "js-bio-btn" },
        "line" : { "classes" :"line--left" },

        "module" : {
          "bio" : true
        },

        "galleries" : [
          {
            "classes" : {
              "item" : "u-span5@m u-offset1@m u-cl"
            },
            "hero" : {
              "img" : "fpo-4x3-6.jpg"
            },
            "caption" : "Ed Ruscha exhibition.",
            "mediaGallery": true,
            "mediaData": {
              "related": true,
              "type": "image",
              "src": "img/fpo-4x3-6.jpg",
              "title": "<strong>Ed Ruscha, &quot;Stabdard Station&quot;, 1966.</strong> Color screenprint, 25 5/8 x 40 in. Published by Audrey Sabol, Villanova, PA. Fine Arts Museums of San Francsco, Museum purchase, Mrs. Paul L. Wattis Fund, 2000.131.51 &copy; Ed Ruscha</strong>"
            }
          },
          {
            "classes" : {
              "item" : "u-span5@m u-cl"
            },
            "hero" : {
              "img" : "fpo-4x3-7.jpg"
            },
            "caption" : "Ed Ruscha exhibition.",
            "mediaGallery": true,
            "mediaData": {
              "related": true,
              "type": "image",
              "src": "img/fpo-4x3-7.jpg",
              "title": "<strong>Ed Ruscha, &quot;Stabdard Station&quot;, 1966.</strong> Color screenprint, 25 5/8 x 40 in. Published by Audrey Sabol, Villanova, PA. Fine Arts Museums of San Francsco, Museum purchase, Mrs. Paul L. Wattis Fund, 2000.131.51 &copy; Ed Ruscha</strong>"
            }
          }
        ]
      }
    },
    "gen-info":{
      "special": true,
      "details": {
        "title": "Sponsors",
        "content": [
          {
            "image": "img/sponsor-sample1.jpg",
            "orientaion": "landscape",
            "cname": "Musée d’ Orsay",
            "link": ""
          },
          {
            "image": "img/sponsor-sample2.jpg",
            "orientaion": "portrait",
            "cname": "Griffin Theatre Company",
            "link": ""
          },
          {
            "image": "img/sponsor-sample3.jpg",
            "orientaion": "landscape",
            "cname": "The SF Examiner",
            "link": ""
          }
        ]
      }
    },
    "featured-video":{
      "image": "img/fpo-4x3-2.jpg",
      "mediaGallery": true,
      "mediaData": {
        "type": "video",
        "src": "https://www.youtube.com/watch?v=-Yxt02FaHmA",
        "title": "<strong>Ed Ruscha, &quot;Stabdard Station&quot;, 1966.</strong> Color screenprint, 25 5/8 x 40 in. Published by Audrey Sabol, Villanova, PA. Fine Arts Museums of San Francsco, Museum purchase, Mrs. Paul L. Wattis Fund, 2000.131.51 &copy; Ed Ruscha</strong>"
      }
    },
    "ticket": {
      "classes" : {
        "hero" : "u-span5@s u-span10@m u-span12",
        "heroMedia" : "media-aw-left@s",
        "info" : {
          "cont" : "u-span8@m u-span7@l u-offset1",
          "title" : "",
          "titleInner" : "h8-special"
        }
      },

      "info" : {
        "body" : "<a href=\"/\" title=\"\" alt=\"\">Buy tickets</a> to the exhibition, or <a href=\"/\" title=\"\" alt=\"\">become a member</a>"
      }
    }
  }
}
