{
  "data":{
    "pageTitle":"Visit Us",

    "visit-intro": {
      "title": "Visit Us",
      "content": "On October 15, 2005, the de Young Museum re-opened in a state-of-the-art new facility that integrates art, architecture, and the natural landscape in one multi-faceted destination that will inspire audiences from around the world. Designed by the renowned Swiss architecture firm Herzog & de Meuron and Fong & Chan Architects in San Francisco, the new de Young provided San Francisco with a landmark art museum to showcase the museum’s priceless collections of American Art from the 17th through the 20th centuries, Textile Arts, and Art of Africa, Oceania, and the Americas."
    },
    "gen-info":{
      "details": {
        "title": "The Details",
        "content": "<h4 class=\"h8\"> Visiting with Children</h4> <p>Infant changing stations are available in all restrooms. Standard-size strollers are allowed, however please note that some exhibitions have restricted stroller access.</p><p>The de Young offers a wide range of programming for children including a family audio tour available at the audio guide kiosk, drop-in art classes on most Saturdays, and hands-on art making in the Artists Studio. For more information on programs for children, please visit <a href=\"/\">Families with Children.</a></p> <h4 class=\"h8\">Promotions</h4><p>The de Young offers ongoing discounts and promotions including free general admission on the first Tuesday of every month and a public transportation discount. To see our current promotions, <a href=\"/\">click here.</a></p>"
      }
    },
    "collection":{
      "feature": {
        "classes" : {
          "_this" : "collection--text-left collection--feature",
          "sections" : "[ u-df@m u-flexww@m u-jcsb@m ]",
            "hero" : "u-span7 u-order-1",
            "heroLink": "[ u-bgc-bk u-opacity-0 u-opacity-hover-50 ]",
            "text" : "u-span5",
              "tag" : "u-highlight",
              "title": "u-grey-dark",
              "subTitle": "",
              "body": ""
        },
        "hero" : {
          "img" : "fpo-4x3-1.jpg",
          "url" :"/"
        },
        "tag" : "Exhibitions",
        "title": "<a href=\"/\" class=\"link-dk-grey\">Ed Ruscha and the Great American West</a>",
        "subTitle": "Through October 9, 2016",
        "body": "Ed Ruscha and the Great American West includes 99 works that reveal the artist’s engagement with the American West and its starring role in our national mythology.",

        "callout" : { "label" : "Ending soon" },
        "cta" : { "label" : "View Exhibitions", "url" : "/" },
        "line" : { "classes" :"line--right" }
      }
    },
    "cinematic": [
      {
        "image": "img/fpo-gallery-1.jpg",
        "caption": "Main entrance at the de Young Museum, 2016",
        "mediaData": {
          "related": false,
          "type": "video",
          "src": "https://www.youtube.com/watch?v=-Yxt02FaHmA",
          "title": "<strong>Ed Ruscha, &quot;Stabdard Station&quot;, 1966.</strong> Color screenprint, 25 5/8 x 40 in. Published by Audrey Sabol, Villanova, PA. Fine Arts Museums of San Francsco, Museum purchase, Mrs. Paul L. Wattis Fund, 2000.131.51 &copy; Ed Ruscha</strong>"
        }
      },
      {
        "image": "img/fpo-gallery-2.jpg",
        "caption": "Lorem ipsum dolor sit amet, consectetur adipiscing elit. Aenean iaculis faucibus pharetra.",
        "mediaData": {
          "related": false,
          "type": "image",
          "src": "img/fpo-gallery-2.jpg",
          "title": "<strong>Ed Ruscha, &quot;Stabdard Station&quot;, 1966.</strong> Color screenprint, 25 5/8 x 40 in. Published by Audrey Sabol, Villanova, PA. Fine Arts Museums of San Francsco, Museum purchase, Mrs. Paul L. Wattis Fund, 2000.131.51 &copy; Ed Ruscha</strong>"
        }
      },
      {
        "image": "img/fpo-gallery-3.jpg",
        "caption": "Suspendisse potenti. Mauris ut viverra elit. Aliquam posuere rutrum interdum. In imperdiet porttitor felis in interdum.",
        "mediaData": {
          "related": false,
          "tag": "artist",
          "type": "image",
          "src": "img/fpo-gallery-3.jpg",
          "title": "<strong>Ed Ruscha, &quot;Stabdard Station&quot;, 1966.</strong> Color screenprint, 25 5/8 x 40 in. Published by Audrey Sabol, Villanova, PA. Fine Arts Museums of San Francsco, Museum purchase, Mrs. Paul L. Wattis Fund, 2000.131.51 &copy; Ed Ruscha</strong>"
        }
      },
      {
        "image": "img/fpo-gallery-3.jpg",
        "caption": "Sed venenatis tempor pellentesque",
        "mediaData": {
          "related": false,
          "type": "video",
          "src": "https://www.youtube.com/watch?v=-Yxt02FaHmA",
          "title": "<strong>Ed Ruscha, &quot;Stabdard Station&quot;, 1966.</strong> Color screenprint, 25 5/8 x 40 in. Published by Audrey Sabol, Villanova, PA. Fine Arts Museums of San Francsco, Museum purchase, Mrs. Paul L. Wattis Fund, 2000.131.51 &copy; Ed Ruscha</strong>"
        }
      },
      {
        "image": "img/fpo-gallery-4.jpg",
        "caption": "Duis id urna ac tellus interdum tincidunt. Donec nec dui lacinia",
        "mediaData": {
          "related": false,
          "type": "image",
          "src": "img/fpo-gallery-4.jpg",
          "title": "<strong>Ed Ruscha, &quot;Stabdard Station&quot;, 1966.</strong> Color screenprint, 25 5/8 x 40 in. Published by Audrey Sabol, Villanova, PA. Fine Arts Museums of San Francsco, Museum purchase, Mrs. Paul L. Wattis Fund, 2000.131.51 &copy; Ed Ruscha</strong>"
        }
      }
    ],
    "ticket": {
      "classes" : {
        "hero": "u-span5@s u-span10@m u-span12@l",
        "heroMedia" : "media-aw-left",
        "info" : {
          "cont" : "u-span6",
          "title" : "h8 [ u-df u-aic ]"
        }
      },

      "info" : {
        "body" : "<a href=\"/\" title=\"\" alt=\"\">Buy tickets</a> to the museum, one of our <a href=\"/\" title=\"\" alt=\"\">Special Exhibitions</a>, or <a href=\"/\" title=\"\" alt=\"\">become a member</a>",
        "disclamer" : "Prices may vary for Special Exhibitions."
      },

      "sched" : true,
      "museumMap" : true
    },
    "circulation": {
      "has2Item": false,
      "items": [
        {
          "title": "Tours",
          "url": "/"
        },
        {
          "title": "Group Visits",
          "url": "/"
        },
        {
          "title": "Hotel + Vistor Packages",
          "url": "/"
        },
        {
          "title": "Accessibility",
          "url": "/"
        },
        {
          "title": "Museum Policy",
          "url": "/"
        },
        {
          "title": "Dine",
          "url": "/"
        }
      ]
    }
  }
}
